\relax 
\citation{nash}
\citation{bernhard2010}
\citation{mckelvey}
\@writefile{toc}{\contentsline {section}{\numberline {1}Introduction}{1}}
\citation{obara}
\citation{osborne}
\citation{supportenum}
\@writefile{toc}{\contentsline {section}{\numberline {2}Past Work for General-Player Games}{2}}
\@writefile{toc}{\contentsline {subsection}{\numberline {2.1}Nash Equilibrium and Best Responses}{2}}
\newlabel{brcond}{{2.1}{2}}
\@writefile{toc}{\contentsline {subsection}{\numberline {2.2}Support Enumeration}{2}}
\citation{ted}
\citation{mckelvey}
\citation{ted}
\citation{globalnewton}
\@writefile{toc}{\contentsline {subsection}{\numberline {2.3}Homotopy Algorithms}{3}}
\citation{tracing}
\citation{quantal}
\citation{gilboa}
\@writefile{toc}{\contentsline {section}{\numberline {3}Three-Player Games with Two Strategies per Player}{5}}
\@writefile{toc}{\contentsline {subsection}{\numberline {3.1}Format}{5}}
\@writefile{lof}{\contentsline {figure}{\numberline {1}{\ignorespaces General format of a $2\times 2\times 2$ game.\relax }}{5}}
\providecommand*\caption@xref[2]{\@setref\relax\@undefined{#1}}
\newlabel{fig:3playerprenorm}{{1}{5}}
\@writefile{toc}{\contentsline {subsection}{\numberline {3.2}Normalization}{5}}
\newlabel{norm}{{3.2}{5}}
\@writefile{lof}{\contentsline {figure}{\numberline {2}{\ignorespaces Two versions of the same Prisoner's Dilemma game.\relax }}{6}}
\newlabel{fig:pris}{{2}{6}}
\@writefile{lof}{\contentsline {figure}{\numberline {3}{\ignorespaces General $2\times 2\times 2$ game after normalization.\relax }}{7}}
\newlabel{fig:3playergeneral}{{3}{7}}
\@writefile{toc}{\contentsline {subsection}{\numberline {3.3}Indifference Equations}{7}}
\newlabel{indif}{{3.3}{7}}
\newlabel{eq1}{{1}{8}}
\newlabel{eq2}{{2}{8}}
\newlabel{eq3}{{3}{8}}
\newlabel{eq4}{{4}{8}}
\citation{agt-stengel}
\@writefile{toc}{\contentsline {section}{\numberline {4}Maximum Number of Equilibria in Generic $2\nobreakspace  {}\times \nobreakspace  {}2\times \nobreakspace  {}2$\nobreakspace  {}Games}{10}}
\newlabel{sec:MaxEq}{{4}{10}}
\@writefile{toc}{\contentsline {subsection}{\numberline {4.1}Pure Equilibria}{10}}
\newlabel{sec:MaxEqPure}{{4.1}{10}}
\@writefile{lof}{\contentsline {figure}{\numberline {4}{\ignorespaces One configuration of a $2\times 2\times 2$ game with four pure equilibria. Boxes represent best-response payoffs.\relax }}{10}}
\newlabel{fig:4pureeq1}{{4}{10}}
\@writefile{lof}{\contentsline {figure}{\numberline {5}{\ignorespaces Another example showcasing a generic game with four pure NE.\relax }}{11}}
\newlabel{fig:4pureeq2}{{5}{11}}
\@writefile{toc}{\contentsline {subsection}{\numberline {4.2}Partially Mixed Equilibria}{11}}
\newlabel{sec:MaxEqPart}{{4.2}{11}}
\@writefile{lof}{\contentsline {figure}{\numberline {6}{\ignorespaces A general $2\times 2\times 2$ game with four equilibria.\relax }}{12}}
\newlabel{fig:3player3eq}{{6}{12}}
\citation{maxeq}
\@writefile{lof}{\contentsline {figure}{\numberline {7}{\ignorespaces Bimatrix game derived by fixing strategy $l$ for Player II.\relax }}{13}}
\newlabel{fig:bimatIandIII}{{7}{13}}
\@writefile{toc}{\contentsline {subsection}{\numberline {4.3}Fully Mixed Equilibria}{13}}
\citation{maxeq}
\citation{maxeq}
\@writefile{lof}{\contentsline {figure}{\numberline {8}{\ignorespaces Maximum number of mixed equilibria for varying regular game sizes \cite  {maxeq}.\relax }}{14}}
\newlabel{fig:maxeq}{{8}{14}}
\citation{gte}
\@writefile{toc}{\contentsline {section}{\numberline {5}Python Module}{15}}
\@writefile{toc}{\contentsline {subsection}{\numberline {5.1}Game Input and Normalization}{15}}
\@writefile{lof}{\contentsline {figure}{\numberline {9}{\ignorespaces The XML format used to represent a $2\times 2\times 2$ game.\relax }}{15}}
\newlabel{fig:xml}{{9}{15}}
\citation{sympy}
\citation{matplotlib}
\@writefile{lof}{\contentsline {figure}{\numberline {10}{\ignorespaces The normalization procedure associated with the game in Figure 9\hbox {}.\relax }}{16}}
\newlabel{fig:normproc}{{10}{16}}
\@writefile{toc}{\contentsline {subsection}{\numberline {5.2}Indifference Equation Calculation and Plotting}{16}}
\@writefile{lof}{\contentsline {figure}{\numberline {11}{\ignorespaces A sample indifference plot.\relax }}{16}}
\newlabel{fig:sample1}{{11}{16}}
\citation{agt-stengel}
\@writefile{lof}{\contentsline {figure}{\numberline {12}{\ignorespaces The same figure as above rotated to a different angle.\relax }}{17}}
\newlabel{fig:sample2}{{12}{17}}
\@writefile{toc}{\contentsline {subsection}{\numberline {5.3}Pure Equilibrium Solver}{17}}
\@writefile{lof}{\contentsline {figure}{\numberline {13}{\ignorespaces A simple two-player game.\relax }}{17}}
\newlabel{fig:battle}{{13}{17}}
\@writefile{loa}{\contentsline {algocf}{\numberline {1}{\ignorespaces Outline of algorithm used to calculate pure NE.\relax }}{18}}
\@writefile{toc}{\contentsline {subsection}{\numberline {5.4}Partially Mixed Equilibrium Solver}{18}}
\@writefile{lof}{\contentsline {figure}{\numberline {14}{\ignorespaces The bimatrix sub-game derived by fixing $L$ for Player III.\relax }}{19}}
\newlabel{fig:2pfixed1}{{14}{19}}
\@writefile{lof}{\contentsline {figure}{\numberline {15}{\ignorespaces The bimatrix sub-game derived by fixing $R$ for Player III.\relax }}{20}}
\newlabel{fig:2pfixed2}{{15}{20}}
\@writefile{toc}{\contentsline {subsection}{\numberline {5.5}Mixed Equilibrium Solver}{20}}
\@writefile{loa}{\contentsline {algocf}{\numberline {2}{\ignorespaces Pseudocode of the algorithm used to calculate mixed equilibria.\relax }}{21}}
\citation{stengelkoller}
\@writefile{toc}{\contentsline {section}{\numberline {6}Case Study: A Game with Irrational Equilibria}{22}}
\@writefile{toc}{\contentsline {subsection}{\numberline {6.1}Analysis}{22}}
\newlabel{sec:stengelkoller}{{6.1}{22}}
\@writefile{lof}{\contentsline {figure}{\numberline {16}{\ignorespaces A $2\times 2\times 2$ zero-sum team game.\relax }}{22}}
\newlabel{fig:stengelkoller}{{16}{22}}
\@writefile{lof}{\contentsline {figure}{\numberline {17}{\ignorespaces Normalized version of the previous game.\relax }}{22}}
\newlabel{fig:stengelkoller}{{17}{22}}
\@writefile{toc}{\contentsline {subsection}{\numberline {6.2}\emph  {GAMBIT} Results}{23}}
\@writefile{lof}{\contentsline {figure}{\numberline {18}{\ignorespaces The game in question represented using \emph  {GAMBIT's} GUI.\relax }}{23}}
\newlabel{fig:naugame}{{18}{23}}
\@writefile{lof}{\contentsline {figure}{\numberline {19}{\ignorespaces Results provided by the \emph  {enum-poly} algorithm for the game in question.\relax }}{23}}
\newlabel{fig:naugame}{{19}{23}}
\@writefile{toc}{\contentsline {subsection}{\numberline {6.3}Python Algorithm Results}{24}}
\@writefile{lof}{\contentsline {figure}{\numberline {20}{\ignorespaces Indifference curves for I (top left), II (top right), and III (bottom).\relax }}{24}}
\newlabel{fig:skindifplots}{{20}{24}}
\@writefile{lof}{\contentsline {figure}{\numberline {21}{\ignorespaces Output of the Python algorithm for the $2\times 2\times 2$ zero-sum team game.\relax }}{25}}
\newlabel{fig:mcmlcodeoutput}{{21}{25}}
\citation{mckelvey}
\@writefile{toc}{\contentsline {section}{\numberline {7}Case Study: A Generic Game with Nine Equilibria}{26}}
\@writefile{toc}{\contentsline {subsection}{\numberline {7.1}Analysis}{26}}
\@writefile{lof}{\contentsline {figure}{\numberline {22}{\ignorespaces A $2\times 2\times 2$ game presented by McKelvey and McLennan (1996).\relax }}{26}}
\newlabel{fig:2pfixed2}{{22}{26}}
\@writefile{lof}{\contentsline {figure}{\numberline {23}{\ignorespaces Normalized version of the previous game with best responses highlighted.\relax }}{26}}
\newlabel{fig:9eqnorm}{{23}{26}}
\@writefile{lof}{\contentsline {figure}{\numberline {24}{\ignorespaces Bimatrix game derived by fixing strategy $L$ for Player III.\relax }}{27}}
\newlabel{fig:mcmlIandII}{{24}{27}}
\@writefile{lof}{\contentsline {figure}{\numberline {25}{\ignorespaces Bimatrix game derived by fixing strategy $B$ for Player I.\relax }}{28}}
\newlabel{fig:mcmlIIIandII}{{25}{28}}
\citation{mckelvey}
\@writefile{lof}{\contentsline {figure}{\numberline {26}{\ignorespaces Bimatrix game derived by fixing strategy $l$ for Player II.\relax }}{29}}
\newlabel{fig:mcmlIandIII}{{26}{29}}
\citation{gambit}
\@writefile{toc}{\contentsline {subsection}{\numberline {7.2}\emph  {GAMBIT} Results}{30}}
\@writefile{lof}{\contentsline {figure}{\numberline {27}{\ignorespaces \emph  {GAMBIT's} strategic form representation of the game in question.\relax }}{30}}
\newlabel{fig:mcmlgambit}{{27}{30}}
\@writefile{lof}{\contentsline {figure}{\numberline {28}{\ignorespaces \emph  {GAMBIT's} default solutions to the above game.\relax }}{30}}
\newlabel{fig:mcmlgambitres}{{28}{30}}
\citation{mckelvey}
\@writefile{lof}{\contentsline {figure}{\numberline {29}{\ignorespaces Results associated with forcing \emph  {GAMBIT} to use an enumeration algorithm.\relax }}{31}}
\newlabel{fig:mcmlgambitres2}{{29}{31}}
\@writefile{toc}{\contentsline {subsection}{\numberline {7.3}Python Algorithm Results}{31}}
\@writefile{lof}{\contentsline {figure}{\numberline {30}{\ignorespaces Indifference plots for I, II, and III, respectively.\relax }}{32}}
\newlabel{fig:mcmlindifplots}{{30}{32}}
\@writefile{lof}{\contentsline {figure}{\numberline {31}{\ignorespaces Output of the Python algorithm for the McKelvey McLennan game.\relax }}{33}}
\newlabel{fig:mcmlcodeoutput}{{31}{33}}
\citation{nau}
\@writefile{toc}{\contentsline {section}{\numberline {8}Case Study: A Game with a Continuum of Completely Mixed Equilibria}{34}}
\@writefile{toc}{\contentsline {subsection}{\numberline {8.1}Analysis}{34}}
\@writefile{lof}{\contentsline {figure}{\numberline {32}{\ignorespaces A game from Nau, Canovas, and Hansen's 2004 publication.\relax }}{34}}
\newlabel{fig:naugame}{{32}{34}}
\@writefile{lof}{\contentsline {figure}{\numberline {33}{\ignorespaces Normalized version of the $2\times 2\times 2$ game by Canovas et al. (2004).\relax }}{34}}
\newlabel{fig:naunorm}{{33}{34}}
\citation{nau}
\@writefile{toc}{\contentsline {subsection}{\numberline {8.2}\emph  {GAMBIT} Results}{35}}
\@writefile{lof}{\contentsline {figure}{\numberline {34}{\ignorespaces The \emph  {GAMBIT} representation of the game presented in Canovas et al. (2004).\relax }}{35}}
\newlabel{fig:naugambit}{{34}{35}}
\@writefile{lof}{\contentsline {figure}{\numberline {35}{\ignorespaces \emph  {GAMBIT's} default solutions to the game.\relax }}{36}}
\newlabel{fig:naugambitres}{{35}{36}}
\@writefile{lof}{\contentsline {figure}{\numberline {36}{\ignorespaces The results from \emph  {GAMBIT's} \emph  {enum-poly} algorithm.\relax }}{36}}
\newlabel{fig:naugambitres2}{{36}{36}}
\@writefile{toc}{\contentsline {subsection}{\numberline {8.3}Python Algorithm Results}{36}}
\@writefile{lof}{\contentsline {figure}{\numberline {37}{\ignorespaces Indifference plots for I and II, respectively.\relax }}{37}}
\newlabel{fig:nauindifplots}{{37}{37}}
\@writefile{lof}{\contentsline {figure}{\numberline {38}{\ignorespaces Indifference curve for Player III.\relax }}{37}}
\@writefile{lof}{\contentsline {figure}{\numberline {39}{\ignorespaces Output of the Python algorithm for the Nau, Canovas, and Hansen game.\relax }}{38}}
\newlabel{fig:naugame}{{39}{38}}
\citation{selten}
\citation{jsgte}
\citation{jsgte}
\@writefile{toc}{\contentsline {section}{\numberline {9}Case Study: Selten's Horse}{39}}
\@writefile{toc}{\contentsline {subsection}{\numberline {9.1}Analysis}{39}}
\@writefile{lof}{\contentsline {figure}{\numberline {40}{\ignorespaces Selten's Horse. Image built using \emph  {JSGTE} \cite  {jsgte}.\relax }}{39}}
\newlabel{fig:sample2}{{40}{39}}
\citation{selten2}
\@writefile{lof}{\contentsline {figure}{\numberline {41}{\ignorespaces Normalized strategic form of Selten's Horse.\relax }}{40}}
\newlabel{fig:9eqorig}{{41}{40}}
\@writefile{toc}{\contentsline {subsection}{\numberline {9.2}\emph  {GAMBIT} Results}{41}}
\@writefile{lof}{\contentsline {figure}{\numberline {42}{\ignorespaces The extensive form of Selten's Horse, built using \emph  {GAMBIT} 14.\relax }}{42}}
\newlabel{fig:sample2}{{42}{42}}
\@writefile{lof}{\contentsline {figure}{\numberline {43}{\ignorespaces \emph  {GAMBIT's} default solution for Selten's Horse.\relax }}{42}}
\newlabel{fig:sample2}{{43}{42}}
\@writefile{lof}{\contentsline {figure}{\numberline {44}{\ignorespaces The output of the \emph  {enum-poly} algorithm when presented with Selten's Horse.\relax }}{42}}
\newlabel{fig:sample2}{{44}{42}}
\@writefile{toc}{\contentsline {subsection}{\numberline {9.3}Python Algorithm Results}{43}}
\newlabel{SeltenAlgRes}{{9.3}{43}}
\@writefile{lof}{\contentsline {figure}{\numberline {45}{\ignorespaces Indifference curves for I, II, and III, respectively.\relax }}{43}}
\newlabel{fig:skindifplots}{{45}{43}}
\@writefile{lof}{\contentsline {figure}{\numberline {46}{\ignorespaces Output of the Python algorithm for the Selten's Horse game.\relax }}{44}}
\newlabel{fig:mcmlcodeoutput}{{46}{44}}
\@writefile{lof}{\contentsline {figure}{\numberline {47}{\ignorespaces A sample 2D indifference plot, with best response regions taken into account. Along the curve, Player I is indifferent. In the top right region, strategy $T$ is a best response, whereas in the bottom left strategy $B$ is a best response.\relax }}{45}}
\newlabel{fig:mcmlcodeoutput}{{47}{45}}
\citation{gte}
\citation{jsgte}
\citation{matplotlib}
\@writefile{toc}{\contentsline {section}{\numberline {10}Future Work}{46}}
\@writefile{toc}{\contentsline {subsection}{\numberline {10.1}Improvements for Complex Cases}{46}}
\@writefile{toc}{\contentsline {subsection}{\numberline {10.2}Integration into Larger Game Theory Applications}{46}}
\@writefile{lof}{\contentsline {figure}{\numberline {48}{\ignorespaces An interactive 3D indifference plot embedded in a web page.\relax }}{47}}
\@writefile{toc}{\contentsline {subsection}{\numberline {10.3}Extensions Beyond $2\times 2\times 2$ Games}{47}}
\@writefile{toc}{\contentsline {section}{\numberline {11}Conclusion}{49}}
\bibstyle{apa}
\bibcite{bernhard2010}{1}
\bibcite{nau}{2}
\bibcite{selten}{3}
\bibcite{gilboa}{4}
\bibcite{globalnewton}{5}
\bibcite{tracing}{6}
\bibcite{jsgte}{7}
\bibcite{supportenum}{8}
\bibcite{selten2}{9}
\bibcite{matplotlib}{10}
\bibcite{stengelkoller}{11}
\bibcite{lemke}{12}
\bibcite{mckelvey}{13}
\bibcite{maxeq}{14}
\bibcite{gambit}{15}
\@writefile{toc}{\contentsline {section}{\numberline {12}References}{50}}
\bibcite{quantal}{16}
\bibcite{nash}{17}
\bibcite{obara}{18}
\bibcite{osborne}{19}
\bibcite{gte}{20}
\bibcite{sympy}{21}
\bibcite{ted}{22}
\bibcite{agt-stengel}{23}
\@writefile{toc}{\contentsline {section}{\numberline {A}Appendix}{52}}
\newlabel{app:a}{{A}{52}}
