#FIG 3.2  Produced by xfig version 3.2.5c
Landscape
Center
Metric
A4      
100.00
Single
-2
1200 2
0 32 #d9d9d9
1 3 0 5 4 7 50 -1 -1 0.000 1 0.0000 6300 9900 45 45 6300 9900 6345 9900
2 2 0 1 0 7 50 -1 -1 0.000 0 0 -1 0 0 5
	 6300 4500 11700 4500 11700 9900 6300 9900 6300 4500
2 3 0 0 4 4 60 -1 31 0.000 0 0 -1 0 0 11
	 6300 9900 6300 4500 8100 4500 8370 5895 8685 6750 9000 7200
	 9360 7470 9945 7695 11700 8100 11700 9900 6300 9900
3 0 0 5 4 7 50 -1 -1 0.000 0 0 0 3
	 8100 4500 8550 7650 11700 8100
	 0.000 1.000 0.000
4 0 4 50 -1 1 50 0.0000 4 555 465 10080 5940 T\001
4 0 4 50 -1 1 50 0.0000 4 555 510 7470 8460 B\001
